<svg width="768" height="822" viewBox="0 0 768 822" fill="none" xmlns="http://www.w3.org/2000/svg">
<g clip-path="url(#clip0_3361_19)">
<g filter="url(#filter0_f_3361_19)">
<ellipse cx="732" cy="182.5" rx="17" ry="17.5" fill="#D9D9D9"/>
</g>
<line x1="739.53" y1="166.829" x2="767.53" y2="89.8291" stroke="white"/>
<line x1="719.274" y1="190.418" x2="638.274" y2="243.418" stroke="white"/>
<line x1="746.361" y1="191.654" x2="768.361" y2="214.654" stroke="white"/>
<g filter="url(#filter1_f_3361_19)">
<ellipse cx="550" cy="575.5" rx="17" ry="16.5" fill="#D9D9D9"/>
</g>
<line x1="549.498" y1="589.951" x2="564.498" y2="740.951" stroke="white"/>
<line x1="540.414" y1="587.28" x2="428.414" y2="753.28" stroke="white"/>
<line x1="558.399" y1="586.699" x2="622.399" y2="671.699" stroke="white"/>
<g filter="url(#filter2_f_3361_19)">
<ellipse cx="444.5" cy="273.5" rx="18.5" ry="17.5" fill="#D9D9D9"/>
</g>
<line x1="456.682" y1="260.614" x2="542.682" y2="189.614" stroke="white"/>
<line x1="463.056" y1="271.503" x2="507.056" y2="276.503" stroke="white"/>
<line x1="437.591" y1="256.288" x2="392.591" y2="192.288" stroke="white"/>
<line x1="426.906" y1="265.491" x2="321.906" y2="245.491" stroke="white"/>
<line x1="426.104" y1="273.489" x2="327.104" y2="294.489" stroke="white"/>
<line x1="438.462" y1="291.192" x2="387.462" y2="414.192" stroke="white"/>
</g>
<defs>
<filter id="filter0_f_3361_19" x="711" y="161" width="42" height="43" filterUnits="userSpaceOnUse" color-interpolation-filters="sRGB">
<feFlood flood-opacity="0" result="BackgroundImageFix"/>
<feBlend mode="normal" in="SourceGraphic" in2="BackgroundImageFix" result="shape"/>
<feGaussianBlur stdDeviation="2" result="effect1_foregroundBlur_3361_19"/>
</filter>
<filter id="filter1_f_3361_19" x="529" y="555" width="42" height="41" filterUnits="userSpaceOnUse" color-interpolation-filters="sRGB">
<feFlood flood-opacity="0" result="BackgroundImageFix"/>
<feBlend mode="normal" in="SourceGraphic" in2="BackgroundImageFix" result="shape"/>
<feGaussianBlur stdDeviation="2" result="effect1_foregroundBlur_3361_19"/>
</filter>
<filter id="filter2_f_3361_19" x="422" y="252" width="45" height="43" filterUnits="userSpaceOnUse" color-interpolation-filters="sRGB">
<feFlood flood-opacity="0" result="BackgroundImageFix"/>
<feBlend mode="normal" in="SourceGraphic" in2="BackgroundImageFix" result="shape"/>
<feGaussianBlur stdDeviation="2" result="effect1_foregroundBlur_3361_19"/>
</filter>
<clipPath id="clip0_3361_19">
<rect width="768" height="822" fill="white"/>
</clipPath>
</defs>
</svg>
